{
    "add_repo": {
        "intro": "Σάρωση του κωδικού QR από αποθετήρια που θέλετε να προσθέσετε από συσκευές ή ιστοσελίδες από όπου μπορούν να βρεθούν.",
        "no_internet": "Όχι διαδίκτυο; Κανένα πρόβλημα. Μάθετε <a href=\"../swap/\">Πώς να Στείλετε και να Λάβετε Εφαρμογές χωρίς Σύνδεση.</a>",
        "open_repo_link": {
            "description": "Εάν σταλεί ένας σύνδεσμος αποθετηρίου μέσω ηλεκτρονικού ταχυδρομείου, κοινωνικά δίκτυα ή SMS, προσθέστε τη δυνατότητα να εγκαταστήσετε τις εφαρμογές σε αυτό στο F-Droid ανοίγοντας το.",
            "short_summary": "Άνοιγμα του συνδέσμου αποθετηρίου",
            "steps": {
                "step_1": "Κατεβάστε και εγκαταστήστε την εφαρμογή F-Droid στην Android συσκευή σας.",
                "step_2": ".add_repo.open_repo_link.steps.step_2",
                "step_3": "Όταν έχετε ανοικτή τη σύνδεση, πατήστε το κουμπί 'Προσθήκη στο F-droid'.",
                "step_4": "Πατήστε το κουμπί 'Έχω το F-droid'. Η εφαρμογή F-droid θα ανοίξει.",
                "step_5": "Το 'Προσθήκη νέου αποθετηρίου' εμφανίζεται με τη διεύθυνση του αποθετηρίου την προγεμισμένη. Πατήστε \"OK\" για να το προσθέσετε.",
                "step_6": "Το νέο σας αποθετήριο θα προστεθεί. Για να δείτε μια λίστα των αποθετηρίων σας, ανοίξτε τις 'Ρυθμίσεις'. Επιλέξτε 'Αποθετήρια'.",
                "step_7": "Πατήστε σε ένα αποθετήριο για να δείτε τα περιεχόμενά του.",
                "step_8": "Επιλέξτε τις εφαρμογές που θέλετε να έχετε και εγκαταστήστε τις στη συσκευή σας."
            },
            "title": "Ανοίξτε το σύνδεσμο αποθετηρίου στη συσκευή σας"
        }
    }
}
